{
  "kind": "collectionType",
  "collectionName": "users",
  "info": {
    "name": "users",
    "description": ""
  },
  "options": {
    "increments": true,
    "timestamps": true,
    "draftAndPublish": true
  },
  "pluginOptions": {},
  "attributes": {
    "username": {
      "type": "string"
    },
    "status": {
      "type": "string"
    },
    "room": {
      "type": "string"
    },
    "socketId": {
      "type": "string"
    }
  }
}
